Deloppgave 3
…
3RM kneby (kg)
131.3 (19.5)

Totalt treningsvolum (kg) fra uke 1 til 6
107473.5 (16596.6)

Verdier er oppgitt i gjennomsnitt og (Standardavvik)

##### Regresjonsmodell ######
hypertrophy %>%
  ungroup() # Fjerner grupperingen av datasettet.

## # A tibble: 30 x 275
##    SUB_ID GROUP CLUSTER ID_CLUST PERCENT_TYPE_II PERCENT_TYPE_I_ FAST_CSA_T1
##    <chr>  <chr> <chr>      <dbl>            <dbl>            <dbl>       <dbl>
##  1 MRV001 WP    LOW            1             45.2             54.8       4629.
##  2 MRV002 WP    HIGH           2             26.7             73.3       4939.
##  3 MRV003 GWP   HIGH           2             81.1             18.9       3940.
##  4 MRV004 GWP   LOW            1             67               33         4741.
##  5 MRV005 MALTO HIGH           2             73.9             26.1       3207.
##  6 MRV006 WP    LOW            1             54.6             45.4       5771.
##  7 MRV007 WP    <NA>          NA             65               35         3144.
##  8 MRV009 GWP   <NA>          NA             70.3             29.7       5829.
##  9 MRV010 MALTO <NA>          NA             58.9             41.1       4875.
## 10 MRV011 MALTO HIGH           2             66.0             34.0       3461.
## #  with 20 more rows, and 268 more variables: SLOW_CSA_T1 <dbl>,
## #   FAST_NUCLEI_T1 <dbl>, FAST_NUCLEI_T2 <dbl>, T2T1__FAST_NUCLEI <dbl>,
## #   T2T1_PERCENT_CHANGE_FAST_NUCLEI <dbl>, FAST_NUCLEI_T3 <dbl>,
## #   T3T2__FAST_NUCLEI <dbl>, T3T2_PERCENT_CHANGE_FAST_NUCLEI <dbl>,
## #   T3T1__FAST_NUCLEI <dbl>, T3T1_PERCENT_CHANGE_FAST_NUCLEI <dbl>,
## #   SLOW_NUCLEI_T1 <dbl>, SLOW_NUCLEI_T2 <dbl>, T2T1__SLOW_NUCLEI <dbl>,
## #   T2T1_PERCENT_CHANGE_SLOW_NUCLEI <dbl>, SLOW_NUCLEI_T3 <dbl>,
## #   T3T2__SLOW_NUCLEI <dbl>, T3T2_PERCENT_CHANGE_SLOW_NUCLEI <dbl>,
## #   T3T1__SLOW_NUCLEI <dbl>, T3T1_PERCENT_CHANGE_SLOW_NUCLEI <dbl>,
…
