O4
…
# Klargjr data for legpress
legpress <- df %>%
  filter(!is.na(load)) %>% # Fjerner forskspersoner uten verdier i load
  filter(exercise == "legpress", # Velger ut velsen legpress
         timepoint %in% c("pre", "post")) %>% # Velger ut timepoints
  mutate(timepoint = factor(timepoint,
                            levels = c("pre", "post")), # Endre rekkeflgen p timepoints
         group = factor(group,
                        levels = c("RM30", "RM10"))) # Endre rekkeflgen p gruppene. nsker  kontrollere for RM30.

legpress # Printer resultatene

## # A tibble: 51 x 5
##    subject timepoint group exercise  load
##      <dbl> <fct>     <fct> <chr>    <dbl>
##  1       1 pre       RM30  legpress   180
##  2       2 pre       RM30  legpress   200
##  3       3 pre       RM30  legpress   330
##  4       4 pre       RM10  legpress   350
##  5       5 pre       RM10  legpress   370
##  6       6 pre       RM30  legpress   400
##  7       7 pre       RM30  legpress   250
##  8       8 pre       RM10  legpress   175
##  9       9 pre       RM10  legpress   270
## 10      10 pre       RM30  legpress   240
## #  with 41 more rows
…
# Klargjr data for legpress
isom <- df2 %>%
  filter(!is.na(load)) %>% # Fjerner forskspersoner uten verdier i load
  filter(exercise == "isom", # Velger ut velsen legpress
         timepoint %in% c("pre", "session1", "post")) %>% # Velger ut timepoints
  mutate(timepoint = factor(timepoint,
                            levels = c("pre", "session1", "post")), # Endre rekkeflgen p timepoints
         group = factor(group,
                        levels = c("single", "multiple"))) # Endre rekkeflgen p gruppene. nsker  kontrollere for RM30.

isom # Printer resultatene

## # A tibble: 101 x 6
##    subject timepoint exercise  load sex    group   
##    <chr>   <fct>     <chr>    <dbl> <chr>  <fct>   
##  1 FP11    pre       isom      256. male   single  
##  2 FP11    session1  isom      252  male   single  
##  3 FP11    post      isom      281  male   single  
##  4 FP12    pre       isom      246. female single  
##  5 FP12    session1  isom      290. female single  
##  6 FP12    post      isom      308  female single  
##  7 FP13    pre       isom      204  male   multiple
##  8 FP13    session1  isom      210. male   multiple
##  9 FP13    post      isom      294. male   multiple
## 10 FP14    pre       isom      197  female single  
## #  with 91 more rows
…
